.............
----------------------------------------------------------------------
Ran 13 tests in 0.215s

OK
Name             Stmts   Miss Branch BrPart  Cover   Missing
------------------------------------------------------------
Collatz.py          53      1     28      1    98%   98, 97->98
TestCollatz.py      62      6      0      0    90%   95-97, 100-102
------------------------------------------------------------
TOTAL              115      7     28      1    94%
